^C:\USERS\ANDREAS\GIT REPOS\VULKAN PROJECTS\TRIANGLE DISPLAY\TRIANGLE DISPLAY\SHADERHANDLER.CPP|C:\USERS\ANDREAS\GIT REPOS\VULKAN PROJECTS\TRIANGLE DISPLAY\TRIANGLE DISPLAY\SOURCE.CPP|C:\USERS\ANDREAS\GIT REPOS\VULKAN PROJECTS\TRIANGLE DISPLAY\TRIANGLE DISPLAY\VULKANAPIHANDLER.CPP
C:\USERS\ANDREAS\GIT REPOS\VULKAN PROJECTS\TRIANGLE DISPLAY\TRIANGLE DISPLAY\X64\DEBUG\VC140.PDB
C:\USERS\ANDREAS\GIT REPOS\VULKAN PROJECTS\TRIANGLE DISPLAY\TRIANGLE DISPLAY\X64\DEBUG\VC140.IDB
C:\USERS\ANDREAS\GIT REPOS\VULKAN PROJECTS\TRIANGLE DISPLAY\TRIANGLE DISPLAY\X64\DEBUG\SHADERHANDLER.OBJ
C:\USERS\ANDREAS\GIT REPOS\VULKAN PROJECTS\TRIANGLE DISPLAY\TRIANGLE DISPLAY\X64\DEBUG\SOURCE.OBJ
C:\USERS\ANDREAS\GIT REPOS\VULKAN PROJECTS\TRIANGLE DISPLAY\TRIANGLE DISPLAY\X64\DEBUG\VULKANAPIHANDLER.OBJ
^C:\USERS\ANDREAS\GIT REPOS\VULKAN PROJECTS\TRIANGLE DISPLAY\TRIANGLE DISPLAY\SHADERHANDLER.CPP
C:\USERS\ANDREAS\GIT REPOS\VULKAN PROJECTS\TRIANGLE DISPLAY\TRIANGLE DISPLAY\X64\DEBUG\VC140.PDB
^C:\USERS\ANDREAS\GIT REPOS\VULKAN PROJECTS\TRIANGLE DISPLAY\TRIANGLE DISPLAY\SOURCE.CPP
C:\USERS\ANDREAS\GIT REPOS\VULKAN PROJECTS\TRIANGLE DISPLAY\TRIANGLE DISPLAY\X64\DEBUG\VC140.PDB
C:\USERS\ANDREAS\GIT REPOS\VULKAN PROJECTS\TRIANGLE DISPLAY\TRIANGLE DISPLAY\X64\DEBUG\VC140.IDB
C:\USERS\ANDREAS\GIT REPOS\VULKAN PROJECTS\TRIANGLE DISPLAY\TRIANGLE DISPLAY\X64\DEBUG\SOURCE.OBJ
^C:\USERS\ANDREAS\GIT REPOS\VULKAN PROJECTS\TRIANGLE DISPLAY\TRIANGLE DISPLAY\VULKANAPIHANDLER.CPP
C:\USERS\ANDREAS\GIT REPOS\VULKAN PROJECTS\TRIANGLE DISPLAY\TRIANGLE DISPLAY\X64\DEBUG\VC140.PDB
C:\USERS\ANDREAS\GIT REPOS\VULKAN PROJECTS\TRIANGLE DISPLAY\TRIANGLE DISPLAY\X64\DEBUG\VC140.IDB
^C:\USERS\ANDREAS\GIT REPOS\VULKAN PROJECTS\TRIANGLE DISPLAY\TRIANGLE DISPLAY\SOURCE.CPP|C:\USERS\ANDREAS\GIT REPOS\VULKAN PROJECTS\TRIANGLE DISPLAY\TRIANGLE DISPLAY\VULKANAPIHANDLER.CPP
C:\USERS\ANDREAS\GIT REPOS\VULKAN PROJECTS\TRIANGLE DISPLAY\TRIANGLE DISPLAY\X64\DEBUG\VC140.PDB
C:\USERS\ANDREAS\GIT REPOS\VULKAN PROJECTS\TRIANGLE DISPLAY\TRIANGLE DISPLAY\X64\DEBUG\VC140.IDB
C:\USERS\ANDREAS\GIT REPOS\VULKAN PROJECTS\TRIANGLE DISPLAY\TRIANGLE DISPLAY\X64\DEBUG\SOURCE.OBJ
